<?xml version="1.0" encoding="utf-8"?>
<!-- Generator: Adobe Illustrator 17.1.0, SVG Export Plug-In . SVG Version: 6.00 Build 0)  -->
<!DOCTYPE svg PUBLIC "-//W3C//DTD SVG 1.1//EN" "http://www.w3.org/Graphics/SVG/1.1/DTD/svg11.dtd">
<svg version="1.1" id="圖層_1" xmlns="http://www.w3.org/2000/svg" xmlns:xlink="http://www.w3.org/1999/xlink" x="0px" y="0px"
	 viewBox="0 0 804 105" enable-background="new 0 0 804 105" xml:space="preserve">
<g>
	<path fill="#FFFFFF" d="M40.209,88.889h-7.489V47.414c-2.664,3.24-4.392,5.112-6.121,6.913l-2.88-2.304
		c10.657-11.881,14.617-27.794,14.833-30.603l7.777,2.592c0.36,0.144,0.576,0.432,0.576,0.72c0,0.504-0.72,1.08-1.08,1.368
		c-1.08,2.376-2.736,5.833-5.617,10.657V88.889z M92.126,38.557H44.098v-3.24h48.028V38.557z M55.835,85.289v3.601H48.49V66.351
		h38.595v22.538h-7.345v-3.601H55.835z M87.302,49.07H48.778v-3.168h38.523V49.07z M87.302,59.15H48.778v-3.24h38.523V59.15z
		 M86.078,28.26H50.074v-3.24h36.003V28.26z M79.741,82.121V69.52H55.835v12.601H79.741z"/>
	<path fill="#FFFFFF" d="M134.892,86.801h-7.489V65.703h-17.569c-0.792,5.4-2.665,12.745-10.873,22.466l-2.88-1.872
		c5.329-7.849,7.057-15.121,7.057-31.539V25.235h56.885v55.949c0,5.977-1.656,7.345-8.064,7.345H143.1l-1.8-3.672
		c1.44,0.216,3.24,0.576,6.985,0.576c4.104,0,4.32-0.36,4.32-3.6V65.703h-17.713V86.801z M127.403,47.054H110.77v5.112
		c0,3.456-0.216,6.913-0.576,10.297h17.209V47.054z M127.403,28.476H110.77v15.337h16.633V28.476z M134.892,43.813h17.713V28.476
		h-17.713V43.813z M134.892,62.463h17.713V47.054h-17.713V62.463z"/>
	<path fill="#FFFFFF" d="M228.998,32.436v3.168H205.02v12.817h31.106v3.241H205.02v6.696c9.721,2.016,24.05,9.145,25.634,10.081
		l-4.176,6.984c-7.632-6.984-17.498-11.737-21.458-13.105v26.138h-7.633V51.662h-27.435v-3.241h27.435v-22.25
		c0-0.504,0-2.304-0.504-4.249l7.776,0.288c0.288,0,1.08,0.216,1.08,0.72c0,0.288-0.072,0.432-0.72,1.296v8.208H228.998z"/>
	<path fill="#FFFFFF" d="M254.553,88.601h-7.057V48.494c-2.52,3.384-4.104,5.185-5.544,6.696l-2.592-2.376
		c4.969-6.48,12.817-21.962,13.897-31.395l7.128,2.016c0.36,0.072,0.72,0.432,0.72,0.72c0,0.432-0.288,0.792-0.792,1.296
		c-2.376,5.76-4.249,9.433-5.761,12.169V88.601z M299.845,32.364v17.642h6.913v8.785h-6.336V53.03h-36.147v5.473
		c0.504-0.936,0.72-1.224,1.008-2.016l3.384,1.44c-0.936,2.88-2.808,7.129-5.256,10.441l-4.896-2.808
		c1.872-1.8,3.816-3.744,5.617-6.769h-6.121v-8.785h7.201V32.364h10.801c0.72-1.368,1.368-2.88,1.944-4.393h-15.337v-3.096h43.492
		v3.096h-20.234c-1.08,1.512-2.16,2.952-3.24,4.393H299.845z M307.622,88.601c-6.121-0.504-16.202-1.656-24.842-5.688
		c-8.425,3.96-16.489,5.112-22.034,5.688l-2.232-3.096c6.121-0.864,12.673-2.016,19.37-5.256c-1.872-1.296-4.32-2.953-6.553-6.121
		c-4.32,2.592-7.2,3.816-9.433,4.68l-2.304-2.736c8.065-3.096,12.961-9,14.113-10.584c-2.376-0.504-2.376-2.521-2.376-4.033v-3.888
		c0-1.008,0-1.44-0.144-2.808l5.833,0.288c0.288,0,0.576,0.216,0.576,0.576c0,0.504-0.288,1.08-0.504,1.584v3.6
		c0,1.656,0.432,1.728,1.944,1.728h6.769c2.304,0,2.664-0.648,3.744-4.896c1.656,1.008,3.312,1.656,4.968,2.232
		c-1.872,5.688-3.384,5.688-6.913,5.688h-5.544c-0.792,0.792-3.024,2.88-4.32,4.032h19.73v2.88
		c-1.224,1.296-4.177,4.393-10.081,7.921c8.929,3.888,19.37,4.824,21.602,5.04L307.622,88.601z M292.933,38.197v-2.808h-20.81v2.808
		H292.933z M292.933,44.101v-3.024h-20.81v3.024H292.933z M292.933,50.006v-3.024h-20.81v3.024H292.933z M276.875,72.688
		c1.512,2.017,3.24,3.384,5.544,4.969c3.528-2.376,4.896-4.104,5.616-4.969H276.875z M283.5,61.671
		c-1.008-1.873-3.168-4.608-4.32-5.977l2.52-2.16c1.008,0.648,3.744,2.376,6.409,4.752L283.5,61.671z M301.213,68.583
		c-1.296-3.312-3.312-6.985-5.473-9.865l2.304-1.872c3.528,3.096,5.329,4.896,7.849,8.209L301.213,68.583z"/>
	<path fill="#FFFFFF" d="M343.187,58.214h-20.09V36.469h20.09V31.5h-29.595v-3.24h29.595v-2.016c0-1.224-0.144-2.232-0.432-4.464
		l7.705,0.432c0.576,0,0.792,0.36,0.792,0.792c0,0.504-0.216,1.008-0.792,2.016v3.24h29.522v3.24h-29.522v4.969h20.306v21.746
		h-3.024c1.152,0.792,6.481,4.176,10.945,9.073l-6.409,5.041c-1.44-2.736-2.521-4.464-4.104-6.553
		c-22.106,1.873-24.698,2.088-47.668,3.745c-2.088,0.792-2.304,0.864-2.808,0.864c-0.432,0-0.936-0.504-1.008-0.864l-1.44-5.4
		c1.512,0.144,2.88,0.288,4.464,0.288c1.296,0,19.441-0.576,23.474-0.792V58.214z M314.312,85.073
		c2.952-2.808,6.408-7.993,8.568-13.321l3.312,1.152c-0.792,4.176-2.376,10.657-4.537,15.553L314.312,85.073z M343.187,39.709
		h-12.673v5.688h12.673V39.709z M343.187,48.565h-12.673v6.481h12.673V48.565z M338.435,71.104c0.432,0.072,0.792,0.504,0.792,0.864
		c0,0.288-0.648,1.584-0.792,1.872v6.84c0,2.232,0,4.537,4.464,4.537h9.145c3.96,0,4.969-1.368,6.121-7.993
		c1.944,1.008,2.664,1.224,6.625,2.448c-2.376,7.849-4.68,8.713-9.865,8.713H337.57c-3.744,0-6.336-0.288-6.336-5.329V73.84
		c0-1.584-0.216-2.664-0.36-3.528L338.435,71.104z M348.875,82.048c-0.864-3.456-3.889-9.361-5.545-11.881l2.665-1.944
		c3.384,2.448,7.993,6.913,9.433,8.785L348.875,82.048z M350.459,45.397h12.817v-5.688h-12.817V45.397z M350.459,55.046h12.817
		v-6.481h-12.817V55.046z M350.459,63.327l15.193-0.648c-0.648-0.792-0.936-1.08-2.88-3.24l1.368-1.224h-13.681V63.327z
		 M372.854,88.097c-2.16-7.705-6.481-14.401-7.345-15.698l2.664-2.088c6.265,4.968,10.297,10.585,11.665,12.385L372.854,88.097z"/>
	<path fill="#FFFFFF" d="M392.649,36.252c0.144,17.282-1.296,22.826-2.16,25.778l-6.049-3.6c3.457-6.985,3.745-17.57,3.528-23.186
		L392.649,36.252z M402.226,22.571c0.36,0,0.72,0.072,0.72,0.504c0,0.432-0.36,1.44-0.504,1.8v63.726h-7.129V26.892
		c0-2.304-0.072-3.024-0.36-4.464L402.226,22.571z M408.562,49.214c-0.792-4.177-2.52-9.217-4.536-12.889l2.88-2.088
		c2.088,2.304,6.84,8.713,7.705,10.225L408.562,49.214z M451.046,88.457c-15.77-5.185-21.386-18.146-22.466-20.81
		c-5.473,13.033-14.617,18.146-20.954,21.025l-2.376-3.024c7.417-4.32,15.697-9.721,18.29-25.562h-16.777v-3.24h17.137
		c0.504-4.896,0.576-10.585,0.576-12.097v-5.832h-11.737v-3.312h11.737v-8.857c0-1.872-0.144-2.736-0.432-4.464l7.633,0.072
		c0.648,0,1.008,0,1.008,0.432c0,0.36-0.144,0.792-0.432,1.44v11.377h15.193v21.242h4.752v3.24h-18.865
		c3.312,18.074,15.121,23.258,19.802,25.274L451.046,88.457z M432.252,38.917c0,1.008-0.072,11.737-0.792,17.929h8.713V38.917
		H432.252z"/>
	<path fill="#FFFFFF" d="M466.953,25.523c0-1.584,0-2.088-0.36-3.744l7.417,0.216c0.216,0,0.504,0.216,0.504,0.576
		c0,0.504-0.359,1.008-0.504,1.368v13.177h4.68v3.24h-4.68v14.257c1.439-0.648,4.248-1.944,4.465-2.088l0.359,3.672
		c-0.936,0.576-3.24,1.944-4.824,2.88v22.898c0,5.185-0.504,6.48-7.273,6.48h-7.271l-1.152-3.888
		c2.809,0.36,4.465,0.576,6.336,0.576c1.873,0,2.305-0.36,2.305-2.304V63.039l-6.553,3.6c-0.432,0.792-0.648,1.224-1.152,1.224
		c-0.287,0-0.72-0.216-0.792-0.504l-2.16-5.544c2.593-0.504,5.329-1.729,10.657-3.96V40.357h-9.145v-3.24h9.145V25.523z
		 M520.021,60.735c-2.809,6.336-5.904,12.673-13.753,18.29c3.097,1.944,7.921,4.464,19.226,6.336l-1.584,3.24
		c-7.561-0.864-15.985-3.096-22.467-6.625c-4.392,2.304-12.024,5.472-23.762,6.913l-1.872-3.384
		c9.865-1.296,16.562-4.176,20.954-6.553c-6.408-5.256-8.425-10.297-9.434-12.817l7.057-1.8c0.505,1.728,1.945,6.48,7.129,11.233
		c5.977-5.185,7.85-9.793,8.569-11.593h-30.819v-3.24h18.723v-5.617H481.93V28.62l5.186,0.72c2.16-0.72,5.111-2.16,6.624-3.456
		l3.024,3.744c0.145,0.216,0.359,0.36,0.359,0.648c0,0.792-0.863,0.72-1.439,0.648c-2.809,1.081-5.977,1.512-7.057,1.656v8.209
		h6.912v3.24h-6.912v7.92h9.361V25.235c0-0.936-0.217-2.52-0.36-3.456l7.488,0.216c0.36,0,0.576,0.36,0.576,0.576
		c0,0.216-0.288,1.008-0.576,1.584V51.95h9.289v-8.281h-6.624v-3.24h6.624v-8.281h-6.985v-3.24h13.826v26.21h-16.13v5.617H520.021z"
		/>
</g>
<path fill="#44B034" d="M736.437,54.294c3.704-3.81,9.638-4.237,13.961-3.859c1.456,0.16,4.192,1.347,4.062,3.126
	c-0.129,1.772-0.706,3.547-1.829,4.925c-0.599,0.708-1.739,1.387-2.595,0.685c-0.926-0.992-2.209-2.123-4.149-2.361
	c-0.571-0.07-1.177,0.402-1.414,0.994c-0.695,1.417-0.266,4.006-0.292,5.536c0.994-0.007,1.716-0.115,3.92-0.371
	c2.093-0.243,4.91-0.576,5.293-0.228c0.626,0.569-0.762,4.125-1.366,5.634c-0.569,1.423-1.427,2.778-1.707,3.016
	c-0.431,0.367-0.639,0.291-2.201,0.134c-1.328-0.134-2.89-0.302-3.53-0.247c0.065,2.192,0.54,7.106,0.958,10.57
	c0.235,1.948,0.438,3.819-0.36,4.773c-0.728,0.871-6.009,0.376-9.336,0.539c-0.948,0.001-2.382-0.296-2.642-2.044
	c-0.111-0.747-0.01-12.001-0.021-17.888C733.177,61.342,733.639,56.57,736.437,54.294"/>
<path fill="#EC6C2A" d="M622.276,72.932c0,18.539,26.897,18.631,26.897,0.108C649.173,54.826,622.276,54.524,622.276,72.932z
	 M635.704,79.247c-2.332-0.257-3.035-3.579-3.332-5.725c-0.38-2.75,0.148-7.378,3.572-6.607c2.642,0.595,3.119,4.566,3.26,6.968
	C639.362,76.536,638.512,79.558,635.704,79.247z"/>
<path fill="#EC6C2A" d="M593.648,72.932c0,18.539,26.897,18.631,26.897,0.108C620.545,54.826,593.648,54.524,593.648,72.932z
	 M607.077,79.247c-2.332-0.257-3.035-3.579-3.332-5.725c-0.38-2.75,0.148-7.378,3.572-6.607c2.642,0.595,3.119,4.566,3.26,6.968
	C610.734,76.536,609.885,79.558,607.077,79.247z"/>
<path fill="#EC6C2A" d="M571.916,52.947c4.316-0.71,8.694-0.02,12.945,0.799c1.383,0.396,2.506-0.717,3.821-0.874
	c0.567,0.072,1.133,0.321,1.407,0.85c0.908,1.571,0.632,3.449,0.673,5.18c-0.041,1.796,0.099,3.609-0.218,5.385
	c-0.096,0.642-0.526,1.3-1.219,1.369c-0.99,0.147-1.885-0.475-2.486-1.205c-1.035-1.243-1.834-2.691-3.08-3.746
	c-1.916-1.738-4.63-2.257-7.14-2.124c-1.649,0.079-3.083,1.219-3.834,2.643c-1.274,2.424-1.383,5.248-1.257,7.925
	c0.164,3.145,0.543,6.43,2.117,9.216c1.058,1.95,3.363,3.275,5.59,2.715c0.768-0.506,0.703-1.503,0.785-2.305
	c0.007-1.431,0.174-2.604-0.29-3.983c-0.772-0.983-2.384-0.864-2.981-2.052c-0.601-1.349-0.393-3.606,1.373-3.892
	c1.574-0.12,3.155,0.044,4.733,0.047c3.077,0.137,3.574-0.126,6.651-0.082c0.843,0.034,1.933,0.143,2.318,1.035
	c0.304,1.174,0.124,10.584,0.117,12.991c0.027,0.758-0.229,1.68-1.048,1.916c-1.356,0.242-2.756,0.16-4.098,0.512
	c-3.817,0.884-7.546,2.326-11.504,2.448c-4.152,0.222-8.55-0.946-11.569-3.927c-3.602-3.493-5.04-8.694-4.954-13.6
	c-0.119-4.306,1.035-8.779,3.814-12.139C564.892,55.231,568.341,53.49,571.916,52.947"/>
<path fill="#44B034" d="M684.307,56.957c0-2.732,1.089-3.851,1.837-4.025c3.063-0.714,8.903-2.171,11.463-2.19
	c0.802,0.017,1.844,0.089,2.219,0.936c0.341,0.963,0.29,2.216-0.492,2.96c-0.669,0.652-1.673,0.744-2.387,1.311
	c-0.622,0.895-0.437,4.475-0.485,5.513c0.02,5.241-0.102,10.486,0,15.728c0.099,1.287,0.106,3.223,1.694,3.595
	c2.67,0.365,5.825,0.266,7.84-1.789c1.41-1.287,1.84-3.367,3.432-4.476c0.98-0.584,2.766-0.482,2.977,0.884
	c0.239,2.806-0.304,5.61-0.549,8.4c-0.15,0.939-0.038,1.997-0.635,2.8c-0.803,0.407-1.735,0.243-2.599,0.27
	c-7.966-0.15-15.932-0.164-23.895,0.01c-0.905-0.078-2.131,0.256-2.687-0.676c-0.345-0.987,1.273-3.102,1.813-3.615
	c0.618-0.697,0.887-10.157,0.659-16.986L684.307,56.957z"/>
<g>
	<path fill="#44B034" d="M722.102,50.979c1.352-0.331,2.916-0.133,3.957,0.854c0.891,0.888,0.932,2.332,0.451,3.439
		c-0.632,1.451-1.967,2.455-3.353,3.128c-1.622,0.782-3.503,1.232-5.282,0.796c-1.513-0.478-1.704-2.431-1.28-3.725
		C717.461,53.134,719.756,51.57,722.102,50.979"/>
	<path fill="#44B034" d="M725.845,62.033c0.826-0.127,2.547-0.884,2.622,0.467c0.116,6.13-0.092,16.31,0.073,20.724
		c0.05,1.334,0.055,3.233-1.485,3.544c-1.571,0.243-7.271,0.21-9.034,0.183c-0.421-0.007-1.402-0.543-1.487-1.567
		c-0.086-1.038-0.019-0.939-0.026-2.049c-0.015-2.386,1.155-10.269,1.121-13.015c0.044-1.113-1.27-1.359-1.998-1.881
		c-1.096-0.516-1.192-2.247-0.239-2.954c0.748-0.604,1.673-0.928,2.575-1.236C720.576,63.45,723.188,62.664,725.845,62.033"/>
</g>
<path fill="#44B034" d="M778.369,77.57c-1.455,0.164-2.459,1.342-3.722,1.953c-1.997,1.154-4.685,1.352-6.628-0.024
	c-1.557-1.127-2.154-3.056-2.667-4.818c3.63-0.99,7.263-1.981,10.886-2.995c0.956-0.211,1.728-0.82,2.342-1.557
	c-0.211-2.326-1.065-4.641-2.749-6.307c-2.598-2.752-6.713-3.452-10.315-2.841c-6.651,1.253-11.664,7.844-11.422,14.553
	c0.051,3.612,1.506,7.44,4.593,9.516c2.356,1.646,5.327,2.062,8.137,1.878c3.227-0.185,6.607-0.809,9.253-2.783
	C778.086,82.674,779.097,79.984,778.369,77.57z M764.828,69.738c-0.417-1.455-0.184-3.537,1.355-4.244
	c1.844-0.802,3.923,1.53,2.899,3.251c-0.765,0.908-1.963,1.304-3.09,1.523C765.528,70.38,764.937,70.278,764.828,69.738z"/>
<path fill="#EC6C2A" d="M678.611,52.219c0.082-0.591-0.615-0.778-1.062-0.833c-1.52-0.157-3.042,0.085-4.545,0.273
	c-2.564,0.41-5.207,0.878-7.485,2.189c-0.881,0.465-1.601,1.503-1.168,2.517c0.611,0.918,1.963,0.854,2.629,1.704
	c0.608,1.168,0.437,2.584,0.048,3.8c-1.297,0.215-2.52-0.341-3.749-0.646c-3.141-0.648-6.586,0.393-8.806,2.722
	c-2.936,3.025-4.033,7.427-3.841,11.552c0.167,3.592,1.332,7.389,4.152,9.793c2.195,1.943,5.47,2.421,8.195,1.417
	c1.817-0.628,3.339-1.851,4.729-3.141c-0.021,1.437,0.146,2.598,0.146,2.598c0.134,0.93,1.011,1.686,1.95,1.681
	c0,0,0.089-0.001,0.922-0.349c2.657-0.994,6.263-2.581,6.263-2.581c0.86-0.376,1.562-1.452,1.559-2.391c0,0-0.076-6.897-0.076-11.26
	C678.473,63.402,678.484,60.076,678.611,52.219z M667.367,77.552c-0.13,0.748-0.413,1.8-1.356,1.807
	c-1.509,0.164-2.694-1.072-3.213-2.366c-1.239-2.968-1.226-6.563,0.393-9.38c0.652-1.195,2.045-1.492,3.299-1.396
	c1.062,0.97,1.014,2.503,1.096,3.824C667.609,72.542,667.715,75.066,667.367,77.552z"/>
<g>
</g>
<g>
</g>
<g>
</g>
<g>
</g>
<g>
</g>
<g>
</g>
<g>
</g>
<g>
</g>
<g>
</g>
<g>
</g>
<g>
</g>
<g>
</g>
<g>
</g>
<g>
</g>
<g>
</g>
</svg>
